-----------------Cinnamon_2.2a_x32-modern-----------------
Cinnamon_2.2a_x32-modern - Evaluation27 : 17.5/30 13-8-9 (00=10=0101111==111111==1==000=)  58%   +56
Cinnamon_2.2a_x32-modern - Evaluation28 : 13.5/30 8-11-11 (0=0=0===0=1=1010000=0=111=1=10)  45%   -35
-----------------Evaluation27-----------------
Evaluation27 - Cinnamon_2.2a_x32-modern : 12.5/30 8-13-9 (11=01=1010000==000000==0==111=)  42%   -56
Evaluation27 - Evaluation28             : 16.0/30 11-9-10 (0==101111==1=1=001=1=10=000=01)  53%   +21
-----------------Evaluation28-----------------
Evaluation28 - Cinnamon_2.2a_x32-modern : 16.5/30 11-8-11 (1=1=1===1=0=0101111=1=000=0=01)  55%   +35
Evaluation28 - Evaluation27             : 14.0/30 9-11-10 (1==010000==0=0=110=0=01=111=10)  47%   -21
